 9 3 . | 8 . . | 1 6 4
 . . . | . . . | . 9 .
 . 1 . | 6 . . | . . .
-------|-------|-------
 . . . | . . . | 7 . .
 . . . | . 9 . | . 2 .
 4 . . | 1 . . | . . .
-------|-------|-------
 . . 9 | 7 . . | . . 6
 . 6 . | . 1 . | 2 . .
 3 2 7 | . . 6 | 8 . .
